%YAML 1.1
%TAG !u! tag:unity3d.com,2011:
--- !u!114 &11400000
MonoBehaviour:
  m_ObjectHideFlags: 0
  m_CorrespondingSourceObject: {fileID: 0}
  m_PrefabInstance: {fileID: 0}
  m_PrefabAsset: {fileID: 0}
  m_GameObject: {fileID: 0}
  m_Enabled: 1
  m_EditorHideFlags: 0
  m_Script: {fileID: 11500000, guid: 280f3309825cc7b448cbed7176abbbe9, type: 3}
  m_Name: Dinos
  m_EditorClassIdentifier: 
  Id: 1
  Name: Dinos
  NameSprite: {fileID: 21300000, guid: bcf49c657aef29e41b178131a7f30d80, type: 3}
  Picture: {fileID: 21300000, guid: 93ae0f44f5b50a44796eb680d6dd2dca, type: 3}
  LevelsTotal: 25
