<svg width="74" height="38" viewBox="0 0 74 38" fill="none" xmlns="http://www.w3.org/2000/svg">
<g filter="url(#filter0_dd)">
<path d="M21.78 20.28H15.86L14.76 23H10.72L16.9 9H20.8L27 23H22.88L21.78 20.28ZM20.62 17.36L18.82 12.88L17.02 17.36H20.62ZM27.9427 8.16H31.7427V23H27.9427V8.16ZM34.2122 12.16H38.0122V23H34.2122V12.16ZM36.1122 10.96C35.4189 10.96 34.8589 10.7667 34.4322 10.38C34.0055 9.99333 33.7922 9.51333 33.7922 8.94C33.7922 8.36667 34.0055 7.88667 34.4322 7.5C34.8589 7.11333 35.4189 6.92 36.1122 6.92C36.8055 6.92 37.3655 7.10667 37.7922 7.48C38.2189 7.84 38.4322 8.30667 38.4322 8.88C38.4322 9.48 38.2189 9.98 37.7922 10.38C37.3655 10.7667 36.8055 10.96 36.1122 10.96ZM46.0217 23.18C44.8217 23.18 43.7484 22.94 42.8017 22.46C41.8551 21.98 41.1151 21.3133 40.5817 20.46C40.0617 19.6067 39.8017 18.64 39.8017 17.56C39.8017 16.48 40.0617 15.52 40.5817 14.68C41.1151 13.8267 41.8551 13.1667 42.8017 12.7C43.7484 12.22 44.8217 11.98 46.0217 11.98C47.2484 11.98 48.3084 12.2467 49.2017 12.78C50.0951 13.3 50.7284 14.0267 51.1017 14.96L48.1617 16.46C47.6684 15.4867 46.9484 15 46.0017 15C45.3217 15 44.7551 15.2267 44.3017 15.68C43.8617 16.1333 43.6417 16.76 43.6417 17.56C43.6417 18.3733 43.8617 19.0133 44.3017 19.48C44.7551 19.9333 45.3217 20.16 46.0017 20.16C46.9484 20.16 47.6684 19.6733 48.1617 18.7L51.1017 20.2C50.7284 21.1333 50.0951 21.8667 49.2017 22.4C48.3084 22.92 47.2484 23.18 46.0217 23.18ZM63.4953 17.6C63.4953 17.6267 63.4753 17.94 63.4353 18.54H55.5553C55.7153 19.1 56.022 19.5333 56.4753 19.84C56.942 20.1333 57.522 20.28 58.2153 20.28C58.7353 20.28 59.182 20.2067 59.5553 20.06C59.942 19.9133 60.3286 19.6733 60.7153 19.34L62.7153 21.42C61.662 22.5933 60.122 23.18 58.0953 23.18C56.8286 23.18 55.7153 22.94 54.7553 22.46C53.7953 21.98 53.0486 21.3133 52.5153 20.46C51.9953 19.6067 51.7353 18.64 51.7353 17.56C51.7353 16.4933 51.9886 15.54 52.4953 14.7C53.0153 13.8467 53.7286 13.18 54.6353 12.7C55.542 12.22 56.562 11.98 57.6953 11.98C58.7753 11.98 59.7553 12.2067 60.6353 12.66C61.5153 13.1 62.2086 13.7467 62.7153 14.6C63.2353 15.44 63.4953 16.44 63.4953 17.6ZM57.7153 14.68C57.1286 14.68 56.6353 14.8467 56.2353 15.18C55.8486 15.5133 55.602 15.9667 55.4953 16.54H59.9353C59.8286 15.9667 59.5753 15.5133 59.1753 15.18C58.7886 14.8467 58.302 14.68 57.7153 14.68Z" fill="white"/>
<path d="M21.78 20.28L23.9122 19.4177C23.5608 18.5488 22.7173 17.98 21.78 17.98V20.28ZM15.86 20.28V17.98C14.9227 17.98 14.0792 18.5488 13.7278 19.4177L15.86 20.28ZM14.76 23V25.3C15.6973 25.3 16.5408 24.7312 16.8922 23.8623L14.76 23ZM10.72 23L8.61589 22.0712C8.30189 22.7825 8.36854 23.6043 8.79305 24.2557C9.21756 24.9072 9.94246 25.3 10.72 25.3V23ZM16.9 9V6.7C15.989 6.7 15.1638 7.23774 14.7959 8.07118L16.9 9ZM20.8 9L22.903 8.06867C22.5345 7.23657 21.71 6.7 20.8 6.7V9ZM27 23V25.3C27.778 25.3 28.5033 24.9067 28.9277 24.2546C29.3521 23.6025 29.418 22.7801 29.103 22.0687L27 23ZM22.88 23L20.7478 23.8623C21.0992 24.7312 21.9427 25.3 22.88 25.3V23ZM20.62 17.36V19.66C21.3838 19.66 22.0978 19.2808 22.5255 18.648C22.9533 18.0152 23.0389 17.2113 22.7542 16.5025L20.62 17.36ZM18.82 12.88L20.9542 12.0225C20.604 11.151 19.7592 10.58 18.82 10.58C17.8808 10.58 17.036 11.151 16.6858 12.0225L18.82 12.88ZM17.02 17.36L14.8858 16.5025C14.6011 17.2113 14.6867 18.0152 15.1145 18.648C15.5422 19.2808 16.2562 19.66 17.02 19.66V17.36ZM21.78 17.98H15.86V22.58H21.78V17.98ZM13.7278 19.4177L12.6278 22.1377L16.8922 23.8623L17.9922 21.1423L13.7278 19.4177ZM14.76 20.7H10.72V25.3H14.76V20.7ZM12.8241 23.9288L19.0041 9.92882L14.7959 8.07118L8.61589 22.0712L12.8241 23.9288ZM16.9 11.3H20.8V6.7H16.9V11.3ZM18.697 9.93133L24.897 23.9313L29.103 22.0687L22.903 8.06867L18.697 9.93133ZM27 20.7H22.88V25.3H27V20.7ZM25.0122 22.1377L23.9122 19.4177L19.6478 21.1423L20.7478 23.8623L25.0122 22.1377ZM22.7542 16.5025L20.9542 12.0225L16.6858 13.7375L18.4858 18.2175L22.7542 16.5025ZM16.6858 12.0225L14.8858 16.5025L19.1542 18.2175L20.9542 13.7375L16.6858 12.0225ZM17.02 19.66H20.62V15.06H17.02V19.66ZM27.9427 8.16V5.86C26.6724 5.86 25.6427 6.88974 25.6427 8.16H27.9427ZM31.7427 8.16H34.0427C34.0427 6.88974 33.0129 5.86 31.7427 5.86V8.16ZM31.7427 23V25.3C33.0129 25.3 34.0427 24.2703 34.0427 23H31.7427ZM27.9427 23H25.6427C25.6427 24.2703 26.6724 25.3 27.9427 25.3V23ZM27.9427 10.46H31.7427V5.86H27.9427V10.46ZM29.4427 8.16V23H34.0427V8.16H29.4427ZM31.7427 20.7H27.9427V25.3H31.7427V20.7ZM30.2427 23V8.16H25.6427V23H30.2427ZM34.2122 12.16V9.86C32.9419 9.86 31.9122 10.8897 31.9122 12.16H34.2122ZM38.0122 12.16H40.3122C40.3122 10.8897 39.2824 9.86 38.0122 9.86V12.16ZM38.0122 23V25.3C39.2824 25.3 40.3122 24.2703 40.3122 23H38.0122ZM34.2122 23H31.9122C31.9122 24.2703 32.9419 25.3 34.2122 25.3V23ZM34.4322 10.38L35.9767 8.67573L34.4322 10.38ZM34.4322 7.5L35.9767 9.20427V9.20427L34.4322 7.5ZM37.7922 7.48L36.2776 9.21093C36.288 9.22 36.2985 9.22898 36.309 9.23787L37.7922 7.48ZM37.7922 10.38L39.3367 12.0843C39.3463 12.0756 39.3558 12.0668 39.3653 12.0579L37.7922 10.38ZM34.2122 14.46H38.0122V9.86H34.2122V14.46ZM35.7122 12.16V23H40.3122V12.16H35.7122ZM38.0122 20.7H34.2122V25.3H38.0122V20.7ZM36.5122 23V12.16H31.9122V23H36.5122ZM36.1122 8.66C35.9784 8.66 35.9241 8.64139 35.9228 8.64092C35.922 8.64066 35.9299 8.6434 35.9427 8.65096C35.9558 8.6586 35.9676 8.66751 35.9767 8.67573L32.8877 12.0843C33.8203 12.9295 34.9707 13.26 36.1122 13.26V8.66ZM35.9767 8.67573C35.9752 8.67434 35.986 8.68395 36.0024 8.7062C36.0192 8.72891 36.0377 8.75924 36.054 8.79588C36.0702 8.83253 36.0806 8.86714 36.0864 8.89595C36.0921 8.92421 36.0922 8.94017 36.0922 8.94H31.4922C31.4922 10.1658 31.9823 11.2638 32.8877 12.0843L35.9767 8.67573ZM36.0922 8.94C36.0922 8.93983 36.0921 8.95579 36.0864 8.98405C36.0806 9.01286 36.0702 9.04746 36.054 9.08412C36.0377 9.12075 36.0192 9.15108 36.0024 9.1738C35.986 9.19605 35.9752 9.20566 35.9767 9.20427L32.8877 5.79573C31.9823 6.61623 31.4922 7.71421 31.4922 8.94H36.0922ZM35.9767 9.20427C35.9676 9.21249 35.9558 9.2214 35.9427 9.22904C35.9299 9.2366 35.922 9.23934 35.9228 9.23908C35.9241 9.23861 35.9784 9.22 36.1122 9.22V4.62C34.9707 4.62 33.8203 4.95054 32.8877 5.79573L35.9767 9.20427ZM36.1122 9.22C36.2537 9.22 36.3162 9.2391 36.3249 9.24197C36.329 9.24336 36.3235 9.24186 36.3119 9.23528C36.3001 9.22858 36.288 9.22002 36.2776 9.21093L39.3067 5.74907C38.3726 4.93172 37.2331 4.62 36.1122 4.62V9.22ZM36.309 9.23787C36.2859 9.21842 36.227 9.15821 36.1804 9.05625C36.159 9.00948 36.1462 8.96655 36.1391 8.93217C36.1322 8.89852 36.1322 8.87964 36.1322 8.88H40.7322C40.7322 7.65007 40.2359 6.53256 39.2754 5.72213L36.309 9.23787ZM36.1322 8.88C36.1322 8.90209 36.1295 8.86604 36.1567 8.80239C36.1691 8.77335 36.1837 8.74809 36.1978 8.72834C36.2116 8.70897 36.2207 8.70061 36.2191 8.70206L39.3653 12.0579C40.2691 11.2105 40.7322 10.0971 40.7322 8.88H36.1322ZM36.2477 8.67573C36.2568 8.66751 36.2686 8.6586 36.2816 8.65096C36.2945 8.6434 36.3024 8.64066 36.3016 8.64092C36.3002 8.64139 36.2459 8.66 36.1122 8.66V13.26C37.2537 13.26 38.4041 12.9295 39.3367 12.0843L36.2477 8.67573ZM42.8017 22.46L41.7616 24.5114L42.8017 22.46ZM40.5817 20.46L38.6177 21.6569C38.6222 21.6643 38.6267 21.6716 38.6313 21.679L40.5817 20.46ZM40.5817 14.68L38.6313 13.461L38.6261 13.4694L40.5817 14.68ZM42.8017 12.7L43.8187 14.763C43.8264 14.7591 43.8341 14.7553 43.8419 14.7514L42.8017 12.7ZM49.2017 12.78L48.0227 14.7548C48.03 14.7592 48.0373 14.7635 48.0447 14.7678L49.2017 12.78ZM51.1017 14.96L52.147 17.0088C53.2061 16.4684 53.6788 15.2098 53.2372 14.1058L51.1017 14.96ZM48.1617 16.46L46.1102 17.4998C46.3864 18.0449 46.8682 18.4576 47.4492 18.6469C48.0302 18.8362 48.6627 18.7865 49.207 18.5088L48.1617 16.46ZM44.3017 15.68L42.6754 14.0537C42.6673 14.0617 42.6593 14.0699 42.6513 14.0781L44.3017 15.68ZM44.3017 19.48L42.6283 21.0578C42.6437 21.0742 42.6594 21.0904 42.6754 21.1063L44.3017 19.48ZM48.1617 18.7L49.207 16.6512C48.6627 16.3735 48.0302 16.3238 47.4492 16.5131C46.8682 16.7024 46.3864 17.1151 46.1102 17.6602L48.1617 18.7ZM51.1017 20.2L53.2372 21.0542C53.6788 19.9502 53.2061 18.6916 52.147 18.1512L51.1017 20.2ZM49.2017 22.4L50.3588 24.3878C50.3661 24.3835 50.3734 24.3792 50.3807 24.3748L49.2017 22.4ZM46.0217 20.88C45.1355 20.88 44.4262 20.7049 43.8419 20.4086L41.7616 24.5114C43.0705 25.1751 44.5079 25.48 46.0217 25.48V20.88ZM43.8419 20.4086C43.2474 20.1072 42.8311 19.7194 42.5321 19.241L38.6313 21.679C39.399 22.9073 40.4627 23.8528 41.7616 24.5114L43.8419 20.4086ZM42.5458 19.2631C42.2632 18.7994 42.1017 18.2532 42.1017 17.56H37.5017C37.5017 19.0268 37.8602 20.4139 38.6177 21.6569L42.5458 19.2631ZM42.1017 17.56C42.1017 16.8664 42.2632 16.3334 42.5373 15.8906L38.6261 13.4694C37.8602 14.7066 37.5017 16.0936 37.5017 17.56H42.1017ZM42.5321 15.899C42.8275 15.4264 43.2359 15.0502 43.8187 14.763L41.7848 10.637C40.4742 11.2831 39.4026 12.2269 38.6313 13.461L42.5321 15.899ZM43.8419 14.7514C44.4262 14.4551 45.1355 14.28 46.0217 14.28V9.68C44.5079 9.68 43.0705 9.98493 41.7616 10.6486L43.8419 14.7514ZM46.0217 14.28C46.9083 14.28 47.5452 14.4697 48.0227 14.7548L50.3807 10.8052C49.0716 10.0236 47.5885 9.68 46.0217 9.68V14.28ZM48.0447 14.7678C48.5081 15.0375 48.7892 15.3716 48.9662 15.8142L53.2372 14.1058C52.6676 12.6817 51.682 11.5625 50.3588 10.7922L48.0447 14.7678ZM50.0564 12.9112L47.1164 14.4112L49.207 18.5088L52.147 17.0088L50.0564 12.9112ZM50.2132 15.4202C49.8342 14.6724 49.2964 13.9709 48.5397 13.4595C47.7653 12.936 46.8912 12.7 46.0017 12.7V17.3C46.0398 17.3 46.0436 17.3046 46.0245 17.2991C46.0038 17.293 45.981 17.2822 45.9637 17.2705C45.927 17.2457 45.9959 17.2742 46.1102 17.4998L50.2132 15.4202ZM46.0017 12.7C44.7528 12.7 43.5882 13.1408 42.6754 14.0537L45.9281 17.3063C45.9392 17.2952 45.9429 17.2934 45.9388 17.2962C45.9344 17.2992 45.9277 17.3028 45.9209 17.3055C45.9143 17.3081 45.9143 17.3072 45.9244 17.3054C45.935 17.3035 45.9597 17.3 46.0017 17.3V12.7ZM42.6513 14.0781C41.6915 15.067 41.3417 16.3286 41.3417 17.56H45.9417C45.9417 17.368 45.9684 17.2761 45.9769 17.2519C45.9809 17.2404 45.9815 17.2421 45.9755 17.2518C45.9694 17.2619 45.961 17.2728 45.9522 17.2819L42.6513 14.0781ZM41.3417 17.56C41.3417 18.7961 41.686 20.0585 42.6283 21.0578L45.9752 17.9022C45.9918 17.9198 45.9915 17.9305 45.9818 17.9023C45.9693 17.8659 45.9417 17.762 45.9417 17.56H41.3417ZM42.6754 21.1063C43.5882 22.0192 44.7528 22.46 46.0017 22.46V17.86C45.9597 17.86 45.935 17.8565 45.9244 17.8546C45.9143 17.8528 45.9143 17.8519 45.9209 17.8545C45.9277 17.8572 45.9344 17.8608 45.9388 17.8638C45.9429 17.8666 45.9392 17.8648 45.9281 17.8537L42.6754 21.1063ZM46.0017 22.46C46.8912 22.46 47.7653 22.224 48.5397 21.7005C49.2964 21.1891 49.8342 20.4876 50.2132 19.7398L46.1102 17.6602C45.9959 17.8858 45.927 17.9143 45.9637 17.8895C45.981 17.8778 46.0038 17.867 46.0245 17.8609C46.0436 17.8554 46.0398 17.86 46.0017 17.86V22.46ZM47.1164 20.7488L50.0564 22.2488L52.147 18.1512L49.207 16.6512L47.1164 20.7488ZM48.9662 19.3458C48.7872 19.7935 48.4993 20.1407 48.0227 20.4252L50.3807 24.3748C51.6908 23.5927 52.6696 22.4732 53.2372 21.0542L48.9662 19.3458ZM48.0447 20.4122C47.5632 20.6925 46.9182 20.88 46.0217 20.88V25.48C47.5786 25.48 49.0536 25.1475 50.3588 24.3878L48.0447 20.4122ZM63.4353 18.54V20.84C64.6462 20.84 65.6497 19.9012 65.7302 18.693L63.4353 18.54ZM55.5553 18.54V16.24C54.8336 16.24 54.1537 16.5788 53.7191 17.155C53.2845 17.7311 53.1455 18.4779 53.3438 19.1719L55.5553 18.54ZM56.4753 19.84L55.1866 21.7451C55.2079 21.7595 55.2295 21.7736 55.2513 21.7873L56.4753 19.84ZM59.5553 20.06L58.7396 17.9095C58.7312 17.9127 58.7227 17.916 58.7143 17.9193L59.5553 20.06ZM60.7153 19.34L62.3732 17.7458C61.5264 16.8652 60.1389 16.8002 59.2136 17.598L60.7153 19.34ZM62.7153 21.42L64.4268 22.9565C65.2316 22.06 65.2083 20.6943 64.3732 19.8258L62.7153 21.42ZM54.7553 22.46L55.7839 20.4028L54.7553 22.46ZM52.5153 20.46L50.5513 21.6569C50.5558 21.6643 50.5603 21.6716 50.5649 21.679L52.5153 20.46ZM52.4953 14.7L50.5312 13.5031L50.5258 13.5121L52.4953 14.7ZM54.6353 12.7L53.5592 10.6673L53.5592 10.6673L54.6353 12.7ZM60.6353 12.66L59.582 14.7046C59.5902 14.7089 59.5985 14.7131 59.6067 14.7172L60.6353 12.66ZM62.7153 14.6L60.7376 15.7742C60.7449 15.7864 60.7522 15.7986 60.7597 15.8106L62.7153 14.6ZM56.2353 15.18L54.7629 13.4131C54.753 13.4213 54.7433 13.4296 54.7336 13.438L56.2353 15.18ZM55.4953 16.54L53.2341 16.1193C53.1091 16.7914 53.2895 17.4843 53.7265 18.0101C54.1634 18.5359 54.8117 18.84 55.4953 18.84V16.54ZM59.9353 16.54V18.84C60.619 18.84 61.2672 18.5359 61.7042 18.0101C62.1411 17.4843 62.3216 16.7914 62.1965 16.1193L59.9353 16.54ZM59.1753 15.18L57.6736 16.922C57.6833 16.9304 57.693 16.9387 57.7029 16.9469L59.1753 15.18ZM61.1953 17.6C61.1953 17.5699 61.1959 17.5468 61.1962 17.5389C61.1965 17.5283 61.1968 17.5203 61.1969 17.5164C61.1972 17.5088 61.1974 17.5047 61.1973 17.5066C61.1972 17.51 61.1966 17.5198 61.1955 17.5387C61.1934 17.5754 61.1899 17.6314 61.185 17.7085C61.1752 17.8619 61.1604 18.0876 61.1404 18.387L65.7302 18.693C65.7646 18.178 65.7953 17.7284 65.7953 17.6H61.1953ZM63.4353 16.24H55.5553V20.84H63.4353V16.24ZM53.3438 19.1719C53.642 20.2155 54.2556 21.1152 55.1866 21.7451L57.764 17.9349C57.7598 17.9321 57.7618 17.933 57.7673 17.9384C57.7729 17.9438 57.7784 17.9503 57.7827 17.9564C57.787 17.9623 57.7872 17.9639 57.7845 17.9583C57.7818 17.9524 57.775 17.9367 57.7668 17.9081L53.3438 19.1719ZM55.2513 21.7873C56.1684 22.3637 57.1999 22.58 58.2153 22.58V17.98C57.8441 17.98 57.7155 17.9029 57.6993 17.8927L55.2513 21.7873ZM58.2153 22.58C58.9419 22.58 59.6887 22.4787 60.3963 22.2007L58.7143 17.9193C58.6753 17.9346 58.5287 17.98 58.2153 17.98V22.58ZM60.371 22.2105C61.0594 21.9494 61.6732 21.5509 62.2171 21.082L59.2136 17.598C58.9841 17.7958 58.8245 17.8773 58.7396 17.9095L60.371 22.2105ZM59.0574 20.9342L61.0574 23.0142L64.3732 19.8258L62.3732 17.7458L59.0574 20.9342ZM61.0038 19.8835C60.5037 20.4406 59.6673 20.88 58.0953 20.88V25.48C60.5766 25.48 62.8203 24.746 64.4268 22.9565L61.0038 19.8835ZM58.0953 20.88C57.1217 20.88 56.3718 20.6968 55.7839 20.4028L53.7267 24.5172C55.0588 25.1832 56.5356 25.48 58.0953 25.48V20.88ZM55.7839 20.4028C55.1762 20.099 54.7597 19.7114 54.4657 19.241L50.5649 21.679C51.3376 22.9153 52.4144 23.861 53.7267 24.5172L55.7839 20.4028ZM54.4794 19.2631C54.1968 18.7994 54.0353 18.2532 54.0353 17.56H49.4353C49.4353 19.0268 49.7938 20.4139 50.5513 21.6569L54.4794 19.2631ZM54.0353 17.56C54.0353 16.8742 54.1931 16.3383 54.4648 15.8879L50.5258 13.5121C49.7842 14.7417 49.4353 16.1125 49.4353 17.56H54.0353ZM54.4594 15.8969C54.7581 15.4067 55.1604 15.0245 55.7115 14.7327L53.5592 10.6673C52.2969 11.3355 51.2726 12.2866 50.5312 13.5031L54.4594 15.8969ZM55.7115 14.7327C56.2529 14.4461 56.8971 14.28 57.6953 14.28V9.68C56.2269 9.68 54.831 9.99395 53.5592 10.6673L55.7115 14.7327ZM57.6953 14.28C58.4429 14.28 59.0567 14.434 59.582 14.7046L61.6886 10.6154C60.4539 9.9793 59.1077 9.68 57.6953 9.68V14.28ZM59.6067 14.7172C60.0886 14.9581 60.4541 15.2966 60.7376 15.7742L64.693 13.4258C63.9632 12.1967 62.942 11.2419 61.6639 10.6028L59.6067 14.7172ZM60.7597 15.8106C61.0179 16.2277 61.1953 16.7922 61.1953 17.6H65.7953C65.7953 16.0878 65.4528 14.6523 64.6709 13.3894L60.7597 15.8106ZM57.7153 12.38C56.663 12.38 55.6287 12.6916 54.7629 13.4131L57.7077 16.9469C57.7009 16.9526 57.6901 16.9605 57.6761 16.9683C57.6622 16.9761 57.6499 16.9812 57.6415 16.984C57.6333 16.9868 57.6331 16.986 57.6436 16.9843C57.6544 16.9827 57.6776 16.98 57.7153 16.98V12.38ZM54.7336 13.438C53.8954 14.1605 53.4221 15.109 53.2341 16.1193L57.7565 16.9607C57.764 16.9205 57.7716 16.8948 57.7764 16.881C57.781 16.8674 57.7832 16.8645 57.7806 16.8693C57.7779 16.8742 57.7722 16.8836 57.7631 16.8948C57.754 16.9062 57.7447 16.9155 57.7371 16.922L54.7336 13.438ZM55.4953 18.84H59.9353V14.24H55.4953V18.84ZM62.1965 16.1193C62.0043 15.0863 61.5091 14.1309 60.6477 13.4131L57.7029 16.9469C57.697 16.942 57.6881 16.9336 57.6784 16.922C57.6688 16.9103 57.6618 16.8996 57.6575 16.892C57.6534 16.8846 57.6541 16.8841 57.6574 16.8936C57.6608 16.9033 57.6674 16.9247 57.6741 16.9607L62.1965 16.1193ZM60.6771 13.438C59.8112 12.6915 58.766 12.38 57.7153 12.38V16.98C57.7902 16.98 57.8027 16.9904 57.7751 16.9809C57.762 16.9764 57.744 16.9688 57.7238 16.9573C57.7036 16.9457 57.6865 16.9332 57.6736 16.922L60.6771 13.438Z" fill="url(#paint0_linear)"/>
</g>
<g filter="url(#filter1_di)">
<path d="M21.78 20.28H15.86L14.76 23H10.72L16.9 9H20.8L27 23H22.88L21.78 20.28ZM20.62 17.36L18.82 12.88L17.02 17.36H20.62ZM27.9427 8.16H31.7427V23H27.9427V8.16ZM34.2122 12.16H38.0122V23H34.2122V12.16ZM36.1122 10.96C35.4189 10.96 34.8589 10.7667 34.4322 10.38C34.0055 9.99333 33.7922 9.51333 33.7922 8.94C33.7922 8.36667 34.0055 7.88667 34.4322 7.5C34.8589 7.11333 35.4189 6.92 36.1122 6.92C36.8055 6.92 37.3655 7.10667 37.7922 7.48C38.2189 7.84 38.4322 8.30667 38.4322 8.88C38.4322 9.48 38.2189 9.98 37.7922 10.38C37.3655 10.7667 36.8055 10.96 36.1122 10.96ZM46.0217 23.18C44.8217 23.18 43.7484 22.94 42.8017 22.46C41.8551 21.98 41.1151 21.3133 40.5817 20.46C40.0617 19.6067 39.8017 18.64 39.8017 17.56C39.8017 16.48 40.0617 15.52 40.5817 14.68C41.1151 13.8267 41.8551 13.1667 42.8017 12.7C43.7484 12.22 44.8217 11.98 46.0217 11.98C47.2484 11.98 48.3084 12.2467 49.2017 12.78C50.0951 13.3 50.7284 14.0267 51.1017 14.96L48.1617 16.46C47.6684 15.4867 46.9484 15 46.0017 15C45.3217 15 44.7551 15.2267 44.3017 15.68C43.8617 16.1333 43.6417 16.76 43.6417 17.56C43.6417 18.3733 43.8617 19.0133 44.3017 19.48C44.7551 19.9333 45.3217 20.16 46.0017 20.16C46.9484 20.16 47.6684 19.6733 48.1617 18.7L51.1017 20.2C50.7284 21.1333 50.0951 21.8667 49.2017 22.4C48.3084 22.92 47.2484 23.18 46.0217 23.18ZM63.4953 17.6C63.4953 17.6267 63.4753 17.94 63.4353 18.54H55.5553C55.7153 19.1 56.022 19.5333 56.4753 19.84C56.942 20.1333 57.522 20.28 58.2153 20.28C58.7353 20.28 59.182 20.2067 59.5553 20.06C59.942 19.9133 60.3286 19.6733 60.7153 19.34L62.7153 21.42C61.662 22.5933 60.122 23.18 58.0953 23.18C56.8286 23.18 55.7153 22.94 54.7553 22.46C53.7953 21.98 53.0486 21.3133 52.5153 20.46C51.9953 19.6067 51.7353 18.64 51.7353 17.56C51.7353 16.4933 51.9886 15.54 52.4953 14.7C53.0153 13.8467 53.7286 13.18 54.6353 12.7C55.542 12.22 56.562 11.98 57.6953 11.98C58.7753 11.98 59.7553 12.2067 60.6353 12.66C61.5153 13.1 62.2086 13.7467 62.7153 14.6C63.2353 15.44 63.4953 16.44 63.4953 17.6ZM57.7153 14.68C57.1286 14.68 56.6353 14.8467 56.2353 15.18C55.8486 15.5133 55.602 15.9667 55.4953 16.54H59.9353C59.8286 15.9667 59.5753 15.5133 59.1753 15.18C58.7886 14.8467 58.302 14.68 57.7153 14.68Z" fill="white"/>
</g>
<defs>
<filter id="filter0_dd" x="0.419998" y="0.619995" width="73.3753" height="36.86" filterUnits="userSpaceOnUse" color-interpolation-filters="sRGB">
<feFlood flood-opacity="0" result="BackgroundImageFix"/>
<feColorMatrix in="SourceAlpha" type="matrix" values="0 0 0 0 0 0 0 0 0 0 0 0 0 0 0 0 0 0 127 0" result="hardAlpha"/>
<feOffset dy="4"/>
<feGaussianBlur stdDeviation="4"/>
<feColorMatrix type="matrix" values="0 0 0 0 0.196487 0 0 0 0 0.196487 0 0 0 0 0.279476 0 0 0 0.06 0"/>
<feBlend mode="multiply" in2="BackgroundImageFix" result="effect1_dropShadow"/>
<feColorMatrix in="SourceAlpha" type="matrix" values="0 0 0 0 0 0 0 0 0 0 0 0 0 0 0 0 0 0 127 0" result="hardAlpha"/>
<feOffset dy="4"/>
<feGaussianBlur stdDeviation="2"/>
<feColorMatrix type="matrix" values="0 0 0 0 0.196487 0 0 0 0 0.196487 0 0 0 0 0.279476 0 0 0 0.08 0"/>
<feBlend mode="multiply" in2="effect1_dropShadow" result="effect2_dropShadow"/>
<feBlend mode="normal" in="SourceGraphic" in2="effect2_dropShadow" result="shape"/>
</filter>
<filter id="filter1_di" x="9.22" y="6.17001" width="55.7753" height="19.26" filterUnits="userSpaceOnUse" color-interpolation-filters="sRGB">
<feFlood flood-opacity="0" result="BackgroundImageFix"/>
<feColorMatrix in="SourceAlpha" type="matrix" values="0 0 0 0 0 0 0 0 0 0 0 0 0 0 0 0 0 0 127 0" result="hardAlpha"/>
<feOffset dy="0.75"/>
<feGaussianBlur stdDeviation="0.75"/>
<feColorMatrix type="matrix" values="0 0 0 0 0 0 0 0 0 0 0 0 0 0 0 0 0 0 0.18 0"/>
<feBlend mode="normal" in2="BackgroundImageFix" result="effect1_dropShadow"/>
<feBlend mode="normal" in="SourceGraphic" in2="effect1_dropShadow" result="shape"/>
<feColorMatrix in="SourceAlpha" type="matrix" values="0 0 0 0 0 0 0 0 0 0 0 0 0 0 0 0 0 0 127 0" result="hardAlpha"/>
<feOffset dy="-0.75"/>
<feComposite in2="hardAlpha" operator="arithmetic" k2="-1" k3="1"/>
<feColorMatrix type="matrix" values="0 0 0 0 0.683715 0 0 0 0 0.836106 0 0 0 0 0.845833 0 0 0 1 0"/>
<feBlend mode="normal" in2="shape" result="effect2_innerShadow"/>
</filter>
<linearGradient id="paint0_linear" x1="37.8058" y1="29.5" x2="37.8058" y2="4" gradientUnits="userSpaceOnUse">
<stop stop-color="#00C2FF"/>
<stop offset="1" stop-color="#00FFB2"/>
</linearGradient>
</defs>
</svg>
